0000.000 (0) Opened log file at time: Mon, 27 Jun 2016 13:37:23 +0000 on http://www.autogasleverkusen.de/umbau
0000.001 (0) UpdraftPlus WordPress backup plugin (https://updraftplus.com): 1.12.13 WP: 4.5.3 PHP: 7.0.7 (Linux info 3.0 #1337 SMP Tue Jan 01 00:00:00 CEST 2000 all GNU/Linux) MySQL: 5.1.73 WPLANG: de_DE Server: Apache safe_mode: 0 max_execution_time: 900 memory_limit: 264M (used: 30.2M | 32M) multisite: N openssl: OpenSSL 0.9.8o 01 Jun 2010 mcrypt: Y LANG:  ZipArchive::addFile: Y
0000.002 (0) Free space on disk containing Updraft's temporary directory: 329139.5 MB
0000.004 (0) Tasks: Backup files: 1 (schedule: unset) Backup DB: 1 (schedule: unset)
0000.013 (0) Requesting semaphore lock (fd) (apparently not via scheduler)
0000.015 (0) Set semaphore last lock (fd) time to 2016-06-27 13:37:23
0000.016 (0) Semaphore lock (fd) complete
0000.022 (0) Backup run: resumption=0, nonce=52f1d4c6dc55, begun at=1467034643 (0s ago), job type=backup
0000.023 (0) Scheduling a resumption (1) after 300 seconds (1467034943) in case this run gets aborted
0000.044 (0) Checking if we have a zip executable available
0000.045 (0) Testing: /usr/bin/zip
0000.380 (0) Output: zip warning: binziptest/test.zip not found or empty
0000.385 (0) Output: adding: binziptest/subdir1/	(in=0) (out=0) (stored 0%)
0000.386 (0) Output: adding: binziptest/subdir1/subdir2/	(in=0) (out=0) (stored 0%)
0000.387 (0) Output: adding: binziptest/subdir1/subdir2/test.html	(in=131) (out=107) (deflated 18%)
0000.387 (0) Output: total bytes=131, compressed=107 -> 18% savings
0000.434 (0) Output: adding: binziptest/subdir1/subdir2/test2.html	(in=138) (out=113) (deflated 18%)
0000.435 (0) Output: total bytes=269, compressed=220 -> 18% savings
0000.444 (0) Working binary zip found: /usr/bin/zip
0000.452 (0) Zip engine: found/will use a binary zip: /usr/bin/zip
0000.458 (0) Creation of backups of directories: beginning
0000.464 (0) Beginning creation of dump of plugins (split every: 400 MB)
0007.961 (0) Total entities for the zip file: 496 directories, 3292 files (0 skipped as non-modified), 45.7 MB
0007.962 (0) Adding batch to zip file (UpdraftPlus_BinZip): over 2.0 seconds have passed since the last write (0 MB, 1 (1) files added so far); re-opening (prior size: 0 KB)
0008.007 (0) backup_2016-06-27-1437_Auto_amp_Gas_Autogas_Umrst_52f1d4c6dc55-plugins.zip.tmp: size is now: 0.10 MB
0008.012 (0) Zip: backup_2016-06-27-1437_Auto_amp_Gas_Autogas_Umrst_52f1d4c6dc55-plugins.zip.tmp: 100 files added (on-disk size: 110.8 KB)
0008.015 (0) Zip: backup_2016-06-27-1437_Auto_amp_Gas_Autogas_Umrst_52f1d4c6dc55-plugins.zip.tmp: 200 files added (on-disk size: 110.8 KB)
0008.019 (0) Zip: backup_2016-06-27-1437_Auto_amp_Gas_Autogas_Umrst_52f1d4c6dc55-plugins.zip.tmp: 300 files added (on-disk size: 110.8 KB)
0008.023 (0) Zip: backup_2016-06-27-1437_Auto_amp_Gas_Autogas_Umrst_52f1d4c6dc55-plugins.zip.tmp: 400 files added (on-disk size: 110.8 KB)
0008.033 (0) Zip: backup_2016-06-27-1437_Auto_amp_Gas_Autogas_Umrst_52f1d4c6dc55-plugins.zip.tmp: 500 files added (on-disk size: 110.8 KB)
0008.034 (0) Adding batch to zip file (UpdraftPlus_BinZip): over 500 files added on this batch (3.2 MB, 3292 files batched, 501 (502) added so far); re-opening (prior size: 110.8 KB)
0011.585 (0) backup_2016-06-27-1437_Auto_amp_Gas_Autogas_Umrst_52f1d4c6dc55-plugins.zip.tmp: size is now: 2.00 MB
0011.590 (0) Zip: backup_2016-06-27-1437_Auto_amp_Gas_Autogas_Umrst_52f1d4c6dc55-plugins.zip.tmp: 600 files added (on-disk size: 2032.5 KB)
0011.593 (0) Zip: backup_2016-06-27-1437_Auto_amp_Gas_Autogas_Umrst_52f1d4c6dc55-plugins.zip.tmp: 700 files added (on-disk size: 2032.5 KB)
0011.597 (0) Zip: backup_2016-06-27-1437_Auto_amp_Gas_Autogas_Umrst_52f1d4c6dc55-plugins.zip.tmp: 800 files added (on-disk size: 2032.5 KB)
0011.601 (0) Zip: backup_2016-06-27-1437_Auto_amp_Gas_Autogas_Umrst_52f1d4c6dc55-plugins.zip.tmp: 900 files added (on-disk size: 2032.5 KB)
0011.604 (0) Zip: backup_2016-06-27-1437_Auto_amp_Gas_Autogas_Umrst_52f1d4c6dc55-plugins.zip.tmp: 1000 files added (on-disk size: 2032.5 KB)
0011.605 (0) Adding batch to zip file (UpdraftPlus_BinZip): over 500 files added on this batch (10.7 MB, 3292 files batched, 501 (1003) added so far); re-opening (prior size: 2032.5 KB)
0018.094 (0) backup_2016-06-27-1437_Auto_amp_Gas_Autogas_Umrst_52f1d4c6dc55-plugins.zip.tmp: size is now: 7.10 MB
0018.099 (0) Zip: backup_2016-06-27-1437_Auto_amp_Gas_Autogas_Umrst_52f1d4c6dc55-plugins.zip.tmp: 1100 files added (on-disk size: 7226.8 KB)
0018.103 (0) Zip: backup_2016-06-27-1437_Auto_amp_Gas_Autogas_Umrst_52f1d4c6dc55-plugins.zip.tmp: 1200 files added (on-disk size: 7226.8 KB)
0018.106 (0) Zip: backup_2016-06-27-1437_Auto_amp_Gas_Autogas_Umrst_52f1d4c6dc55-plugins.zip.tmp: 1300 files added (on-disk size: 7226.8 KB)
0018.110 (0) Zip: backup_2016-06-27-1437_Auto_amp_Gas_Autogas_Umrst_52f1d4c6dc55-plugins.zip.tmp: 1400 files added (on-disk size: 7226.8 KB)
0018.113 (0) Zip: backup_2016-06-27-1437_Auto_amp_Gas_Autogas_Umrst_52f1d4c6dc55-plugins.zip.tmp: 1500 files added (on-disk size: 7226.8 KB)
0018.117 (0) Adding batch to zip file (UpdraftPlus_BinZip): over 500 files added on this batch (4.2 MB, 3292 files batched, 501 (1504) added so far); re-opening (prior size: 7226.8 KB)
0022.186 (0) backup_2016-06-27-1437_Auto_amp_Gas_Autogas_Umrst_52f1d4c6dc55-plugins.zip.tmp: size is now: 9.00 MB
0022.192 (0) Zip: backup_2016-06-27-1437_Auto_amp_Gas_Autogas_Umrst_52f1d4c6dc55-plugins.zip.tmp: 1600 files added (on-disk size: 9204.6 KB)
0022.195 (0) Zip: backup_2016-06-27-1437_Auto_amp_Gas_Autogas_Umrst_52f1d4c6dc55-plugins.zip.tmp: 1700 files added (on-disk size: 9204.6 KB)
0022.198 (0) Zip: backup_2016-06-27-1437_Auto_amp_Gas_Autogas_Umrst_52f1d4c6dc55-plugins.zip.tmp: 1800 files added (on-disk size: 9204.6 KB)
0022.202 (0) Zip: backup_2016-06-27-1437_Auto_amp_Gas_Autogas_Umrst_52f1d4c6dc55-plugins.zip.tmp: 1900 files added (on-disk size: 9204.6 KB)
0022.205 (0) Zip: backup_2016-06-27-1437_Auto_amp_Gas_Autogas_Umrst_52f1d4c6dc55-plugins.zip.tmp: 2000 files added (on-disk size: 9204.6 KB)
0022.206 (0) Adding batch to zip file (UpdraftPlus_BinZip): over 500 files added on this batch (14.8 MB, 3292 files batched, 501 (2005) added so far); re-opening (prior size: 9204.6 KB)
0027.499 (0) backup_2016-06-27-1437_Auto_amp_Gas_Autogas_Umrst_52f1d4c6dc55-plugins.zip.tmp: size is now: 13.30 MB
0027.505 (0) Zip: backup_2016-06-27-1437_Auto_amp_Gas_Autogas_Umrst_52f1d4c6dc55-plugins.zip.tmp: 2100 files added (on-disk size: 13664.2 KB)
0027.509 (0) Zip: backup_2016-06-27-1437_Auto_amp_Gas_Autogas_Umrst_52f1d4c6dc55-plugins.zip.tmp: 2200 files added (on-disk size: 13664.2 KB)
0027.514 (0) Zip: backup_2016-06-27-1437_Auto_amp_Gas_Autogas_Umrst_52f1d4c6dc55-plugins.zip.tmp: 2300 files added (on-disk size: 13664.2 KB)
0027.520 (0) Zip: backup_2016-06-27-1437_Auto_amp_Gas_Autogas_Umrst_52f1d4c6dc55-plugins.zip.tmp: 2400 files added (on-disk size: 13664.2 KB)
0027.527 (0) Zip: backup_2016-06-27-1437_Auto_amp_Gas_Autogas_Umrst_52f1d4c6dc55-plugins.zip.tmp: 2500 files added (on-disk size: 13664.2 KB)
0027.529 (0) Adding batch to zip file (UpdraftPlus_BinZip): over 500 files added on this batch (1.5 MB, 3292 files batched, 501 (2506) added so far); re-opening (prior size: 13664.2 KB)
0032.195 (0) Zip: backup_2016-06-27-1437_Auto_amp_Gas_Autogas_Umrst_52f1d4c6dc55-plugins.zip.tmp: 2600 files added (on-disk size: 14366.6 KB)
0032.199 (0) Zip: backup_2016-06-27-1437_Auto_amp_Gas_Autogas_Umrst_52f1d4c6dc55-plugins.zip.tmp: 2700 files added (on-disk size: 14366.6 KB)
0032.204 (0) Zip: backup_2016-06-27-1437_Auto_amp_Gas_Autogas_Umrst_52f1d4c6dc55-plugins.zip.tmp: 2800 files added (on-disk size: 14366.6 KB)
0032.217 (0) Zip: backup_2016-06-27-1437_Auto_amp_Gas_Autogas_Umrst_52f1d4c6dc55-plugins.zip.tmp: 2900 files added (on-disk size: 14366.6 KB)
0032.223 (0) Zip: backup_2016-06-27-1437_Auto_amp_Gas_Autogas_Umrst_52f1d4c6dc55-plugins.zip.tmp: 3000 files added (on-disk size: 14366.6 KB)
0032.225 (0) Adding batch to zip file (UpdraftPlus_BinZip): over 500 files added on this batch (5.2 MB, 3292 files batched, 501 (3007) added so far); re-opening (prior size: 14366.6 KB)
0035.549 (0) Zip: backup_2016-06-27-1437_Auto_amp_Gas_Autogas_Umrst_52f1d4c6dc55-plugins.zip.tmp: 3100 files added (on-disk size: 16313 KB)
0035.552 (0) Zip: backup_2016-06-27-1437_Auto_amp_Gas_Autogas_Umrst_52f1d4c6dc55-plugins.zip.tmp: 3200 files added (on-disk size: 16313 KB)
0038.273 (0) Created plugins zip (0) - 18985.2 KB in 37.8 s (502.4 KB/s) (SHA1 checksum: aef505e60bb0ed61a8419ec3730006322ed222eb)
0038.275 (0) Beginning creation of dump of themes (split every: 400 MB)
0039.413 (0) Total entities for the zip file: 117 directories, 771 files (0 skipped as non-modified), 18.4 MB
0039.420 (0) Zip: backup_2016-06-27-1437_Auto_amp_Gas_Autogas_Umrst_52f1d4c6dc55-themes.zip.tmp: 100 files added (on-disk size: 0 KB)
0039.427 (0) Zip: backup_2016-06-27-1437_Auto_amp_Gas_Autogas_Umrst_52f1d4c6dc55-themes.zip.tmp: 200 files added (on-disk size: 0 KB)
0039.437 (0) Zip: backup_2016-06-27-1437_Auto_amp_Gas_Autogas_Umrst_52f1d4c6dc55-themes.zip.tmp: 300 files added (on-disk size: 0 KB)
0039.449 (0) Zip: backup_2016-06-27-1437_Auto_amp_Gas_Autogas_Umrst_52f1d4c6dc55-themes.zip.tmp: 400 files added (on-disk size: 0 KB)
0039.460 (0) Zip: backup_2016-06-27-1437_Auto_amp_Gas_Autogas_Umrst_52f1d4c6dc55-themes.zip.tmp: 500 files added (on-disk size: 0 KB)
0039.468 (0) Adding batch to zip file (UpdraftPlus_BinZip): over 500 files added on this batch (16.4 MB, 771 files batched, 501 (501) added so far); re-opening (prior size: 0 KB)
0045.799 (0) backup_2016-06-27-1437_Auto_amp_Gas_Autogas_Umrst_52f1d4c6dc55-themes.zip.tmp: size is now: 9.40 MB
0045.805 (0) Zip: backup_2016-06-27-1437_Auto_amp_Gas_Autogas_Umrst_52f1d4c6dc55-themes.zip.tmp: 600 files added (on-disk size: 9633.6 KB)
0045.808 (0) Zip: backup_2016-06-27-1437_Auto_amp_Gas_Autogas_Umrst_52f1d4c6dc55-themes.zip.tmp: 700 files added (on-disk size: 9633.6 KB)
0047.604 (0) Created themes zip (0) - 10943.6 KB in 9.3 s (1173.2 KB/s) (SHA1 checksum: f14ea9b5209bbb62176cb141ce9a1946152c02c0)
0047.605 (0) No backup of uploads: excluded by user's options
0047.606 (0) No backup of others: excluded by user's options
0047.609 (0) Saving backup status to database (elements: 4)
0047.611 (0) Beginning creation of database dump (WordPress DB)
0047.613 (0) Testing: /usr/bin/mysqldump
0047.663 (0) Working binary mysqldump found: /usr/bin/mysqldump
0047.673 (0) Table wpgas_options: Total expected rows (approximate): 673
0047.754 (0) Table wpgas_options: Total rows added: 668 in 0.08 seconds
0047.757 (0) Table wpgas_options: finishing file (backup_2016-06-27-1437_Auto_amp_Gas_Autogas_Umrst_52f1d4c6dc55-db-table-wpgas_options.table.gz - 144.5 KB)
0047.770 (0) Table wpgas_users: Total expected rows (approximate): 4
0047.772 (0) Table wpgas_users: Total rows added: 4 in 0.00 seconds
0047.773 (0) Table wpgas_users: finishing file (backup_2016-06-27-1437_Auto_amp_Gas_Autogas_Umrst_52f1d4c6dc55-db-table-wpgas_users.table.gz - 0.8 KB)
0047.776 (0) Table wpgas_usermeta: Total expected rows (approximate): 113
0047.780 (0) Table wpgas_usermeta: Total rows added: 113 in 0.00 seconds
0047.781 (0) Table wpgas_usermeta: finishing file (backup_2016-06-27-1437_Auto_amp_Gas_Autogas_Umrst_52f1d4c6dc55-db-table-wpgas_usermeta.table.gz - 2.7 KB)
0047.784 (0) Table wpgas_commentmeta: Total expected rows (approximate): 0
0047.786 (0) Table wpgas_commentmeta: Total rows added: 0 in 0.00 seconds
0047.786 (0) Table wpgas_commentmeta: finishing file (backup_2016-06-27-1437_Auto_amp_Gas_Autogas_Umrst_52f1d4c6dc55-db-table-wpgas_commentmeta.table.gz - 0.3 KB)
0047.790 (0) Table wpgas_comments: Total expected rows (approximate): 1
0047.792 (0) Table wpgas_comments: Total rows added: 1 in 0.00 seconds
0047.793 (0) Table wpgas_comments: finishing file (backup_2016-06-27-1437_Auto_amp_Gas_Autogas_Umrst_52f1d4c6dc55-db-table-wpgas_comments.table.gz - 0.7 KB)
0047.796 (0) Table wpgas_links: Total expected rows (approximate): 0
0047.798 (0) Table wpgas_links: Total rows added: 0 in 0.00 seconds
0047.799 (0) Table wpgas_links: finishing file (backup_2016-06-27-1437_Auto_amp_Gas_Autogas_Umrst_52f1d4c6dc55-db-table-wpgas_links.table.gz - 0.4 KB)
0047.802 (0) Table wpgas_postmeta: Total expected rows (approximate): 264041
0047.804 (0) [Warning] Tabelle wpgas_postmeta hat sehr viele Zeilen (264041) - wir hoffen, dass dein Webhoster dir genügend Ressourcen für einen Dump dieser Tabelle in die SIcherung.
0049.162 (0) Table wpgas_postmeta: binary mysqldump finished (writes: 53) in 1.36 seconds
0049.164 (0) Table wpgas_postmeta: finishing file (backup_2016-06-27-1437_Auto_amp_Gas_Autogas_Umrst_52f1d4c6dc55-db-table-wpgas_postmeta.table.gz - 1874.7 KB)
0049.168 (0) Table wpgas_posts: Total expected rows (approximate): 16317
0049.729 (0) Table wpgas_posts: binary mysqldump finished (writes: 63) in 0.56 seconds
0049.731 (0) Table wpgas_posts: finishing file (backup_2016-06-27-1437_Auto_amp_Gas_Autogas_Umrst_52f1d4c6dc55-db-table-wpgas_posts.table.gz - 745.1 KB)
0049.741 (0) Table wpgas_term_relationships: Total expected rows (approximate): 598
0049.899 (0) Table wpgas_term_relationships: Total rows added: 598 in 0.15 seconds
0049.900 (0) Table wpgas_term_relationships: finishing file (backup_2016-06-27-1437_Auto_amp_Gas_Autogas_Umrst_52f1d4c6dc55-db-table-wpgas_term_relationships.table.gz - 1.6 KB)
0049.904 (0) Table wpgas_term_taxonomy: Total expected rows (approximate): 41
0049.908 (0) Table wpgas_term_taxonomy: Total rows added: 41 in 0.00 seconds
0049.909 (0) Table wpgas_term_taxonomy: finishing file (backup_2016-06-27-1437_Auto_amp_Gas_Autogas_Umrst_52f1d4c6dc55-db-table-wpgas_term_taxonomy.table.gz - 0.7 KB)
0049.913 (0) Table wpgas_termmeta: Total expected rows (approximate): 0
0049.915 (0) Table wpgas_termmeta: Total rows added: 0 in 0.00 seconds
0049.917 (0) Table wpgas_termmeta: finishing file (backup_2016-06-27-1437_Auto_amp_Gas_Autogas_Umrst_52f1d4c6dc55-db-table-wpgas_termmeta.table.gz - 0.3 KB)
0049.920 (0) Table wpgas_terms: Total expected rows (approximate): 41
0049.923 (0) Table wpgas_terms: Total rows added: 41 in 0.00 seconds
0049.924 (0) Table wpgas_terms: finishing file (backup_2016-06-27-1437_Auto_amp_Gas_Autogas_Umrst_52f1d4c6dc55-db-table-wpgas_terms.table.gz - 0.8 KB)
0049.927 (0) Table wpgas_cf7dbplugin_st: Total expected rows (approximate): 582
0049.933 (0) Table wpgas_cf7dbplugin_st: Total rows added: 582 in 0.00 seconds
0049.934 (0) Table wpgas_cf7dbplugin_st: finishing file (backup_2016-06-27-1437_Auto_amp_Gas_Autogas_Umrst_52f1d4c6dc55-db-table-wpgas_cf7dbplugin_st.table.gz - 4.5 KB)
0049.937 (0) Table wpgas_cf7dbplugin_submits: Total expected rows (approximate): 6570
0050.099 (0) Table wpgas_cf7dbplugin_submits: Total rows added: 6570 in 0.16 seconds
0050.101 (0) Table wpgas_cf7dbplugin_submits: finishing file (backup_2016-06-27-1437_Auto_amp_Gas_Autogas_Umrst_52f1d4c6dc55-db-table-wpgas_cf7dbplugin_submits.table.gz - 88.5 KB)
0050.104 (0) Table wpgas_cp_calculated_fields_form_discount_codes: Total expected rows (approximate): 0
0050.107 (0) Table wpgas_cp_calculated_fields_form_discount_codes: Total rows added: 0 in 0.00 seconds
0050.107 (0) Table wpgas_cp_calculated_fields_form_discount_codes: finishing file (backup_2016-06-27-1437_Auto_amp_Gas_Autogas_Umrst_52f1d4c6dc55-db-table-wpgas_cp_calculated_fields_form_discount_codes.table.gz - 0.4 KB)
0050.111 (0) Table wpgas_cp_calculated_fields_form_posts: Total expected rows (approximate): 0
0050.113 (0) Table wpgas_cp_calculated_fields_form_posts: Total rows added: 0 in 0.00 seconds
0050.114 (0) Table wpgas_cp_calculated_fields_form_posts: finishing file (backup_2016-06-27-1437_Auto_amp_Gas_Autogas_Umrst_52f1d4c6dc55-db-table-wpgas_cp_calculated_fields_form_posts.table.gz - 0.4 KB)
0050.117 (0) Table wpgas_cp_calculated_fields_form_settings: Total expected rows (approximate): 7
0050.123 (0) Table wpgas_cp_calculated_fields_form_settings: Total rows added: 7 in 0.00 seconds
0050.124 (0) Table wpgas_cp_calculated_fields_form_settings: finishing file (backup_2016-06-27-1437_Auto_amp_Gas_Autogas_Umrst_52f1d4c6dc55-db-table-wpgas_cp_calculated_fields_form_settings.table.gz - 4.1 KB)
0050.128 (0) Table wpgas_revslider_css: Total expected rows (approximate): 122
0050.135 (0) Table wpgas_revslider_css: Total rows added: 122 in 0.01 seconds
0050.136 (0) Table wpgas_revslider_css: finishing file (backup_2016-06-27-1437_Auto_amp_Gas_Autogas_Umrst_52f1d4c6dc55-db-table-wpgas_revslider_css.table.gz - 5.2 KB)
0050.139 (0) Table wpgas_revslider_layer_animations: Total expected rows (approximate): 5
0050.142 (0) Table wpgas_revslider_layer_animations: Total rows added: 5 in 0.00 seconds
0050.143 (0) Table wpgas_revslider_layer_animations: finishing file (backup_2016-06-27-1437_Auto_amp_Gas_Autogas_Umrst_52f1d4c6dc55-db-table-wpgas_revslider_layer_animations.table.gz - 0.5 KB)
0050.146 (0) Table wpgas_revslider_navigations: Total expected rows (approximate): 0
0050.158 (0) Table wpgas_revslider_navigations: Total rows added: 0 in 0.01 seconds
0050.159 (0) Table wpgas_revslider_navigations: finishing file (backup_2016-06-27-1437_Auto_amp_Gas_Autogas_Umrst_52f1d4c6dc55-db-table-wpgas_revslider_navigations.table.gz - 0.3 KB)
0050.163 (0) Table wpgas_revslider_settings: Total expected rows (approximate): 1
0050.165 (0) Table wpgas_revslider_settings: Total rows added: 1 in 0.00 seconds
0050.166 (0) Table wpgas_revslider_settings: finishing file (backup_2016-06-27-1437_Auto_amp_Gas_Autogas_Umrst_52f1d4c6dc55-db-table-wpgas_revslider_settings.table.gz - 0.3 KB)
0050.171 (0) Table wpgas_revslider_sliders: Total expected rows (approximate): 9
0050.175 (0) Table wpgas_revslider_sliders: Total rows added: 9 in 0.00 seconds
0050.176 (0) Table wpgas_revslider_sliders: finishing file (backup_2016-06-27-1437_Auto_amp_Gas_Autogas_Umrst_52f1d4c6dc55-db-table-wpgas_revslider_sliders.table.gz - 3.6 KB)
0050.179 (0) Table wpgas_revslider_slides: Total expected rows (approximate): 19
0050.190 (0) Table wpgas_revslider_slides: Total rows added: 19 in 0.01 seconds
0050.191 (0) Table wpgas_revslider_slides: finishing file (backup_2016-06-27-1437_Auto_amp_Gas_Autogas_Umrst_52f1d4c6dc55-db-table-wpgas_revslider_slides.table.gz - 9.7 KB)
0050.198 (0) Table wpgas_revslider_static_slides: Total expected rows (approximate): 4
0050.201 (0) Table wpgas_revslider_static_slides: Total rows added: 4 in 0.00 seconds
0050.202 (0) Table wpgas_revslider_static_slides: finishing file (backup_2016-06-27-1437_Auto_amp_Gas_Autogas_Umrst_52f1d4c6dc55-db-table-wpgas_revslider_static_slides.table.gz - 1.5 KB)
0050.204 (0) backup_2016-06-27-1437_Auto_amp_Gas_Autogas_Umrst_52f1d4c6dc55-db-table-wpgas_options.table.gz (1/24): adding to final database dump
0050.246 (0) backup_2016-06-27-1437_Auto_amp_Gas_Autogas_Umrst_52f1d4c6dc55-db-table-wpgas_users.table.gz (2/24): adding to final database dump
0050.247 (0) backup_2016-06-27-1437_Auto_amp_Gas_Autogas_Umrst_52f1d4c6dc55-db-table-wpgas_usermeta.table.gz (3/24): adding to final database dump
0050.249 (0) backup_2016-06-27-1437_Auto_amp_Gas_Autogas_Umrst_52f1d4c6dc55-db-table-wpgas_commentmeta.table.gz (4/24): adding to final database dump
0050.250 (0) backup_2016-06-27-1437_Auto_amp_Gas_Autogas_Umrst_52f1d4c6dc55-db-table-wpgas_comments.table.gz (5/24): adding to final database dump
0050.251 (0) backup_2016-06-27-1437_Auto_amp_Gas_Autogas_Umrst_52f1d4c6dc55-db-table-wpgas_links.table.gz (6/24): adding to final database dump
0050.252 (0) backup_2016-06-27-1437_Auto_amp_Gas_Autogas_Umrst_52f1d4c6dc55-db-table-wpgas_postmeta.table.gz (7/24): adding to final database dump
0051.082 (0) backup_2016-06-27-1437_Auto_amp_Gas_Autogas_Umrst_52f1d4c6dc55-db-table-wpgas_posts.table.gz (8/24): adding to final database dump
0051.395 (0) backup_2016-06-27-1437_Auto_amp_Gas_Autogas_Umrst_52f1d4c6dc55-db-table-wpgas_term_relationships.table.gz (9/24): adding to final database dump
0051.397 (0) backup_2016-06-27-1437_Auto_amp_Gas_Autogas_Umrst_52f1d4c6dc55-db-table-wpgas_term_taxonomy.table.gz (10/24): adding to final database dump
0051.398 (0) backup_2016-06-27-1437_Auto_amp_Gas_Autogas_Umrst_52f1d4c6dc55-db-table-wpgas_termmeta.table.gz (11/24): adding to final database dump
0051.399 (0) backup_2016-06-27-1437_Auto_amp_Gas_Autogas_Umrst_52f1d4c6dc55-db-table-wpgas_terms.table.gz (12/24): adding to final database dump
0051.400 (0) backup_2016-06-27-1437_Auto_amp_Gas_Autogas_Umrst_52f1d4c6dc55-db-table-wpgas_cf7dbplugin_st.table.gz (13/24): adding to final database dump
0051.402 (0) backup_2016-06-27-1437_Auto_amp_Gas_Autogas_Umrst_52f1d4c6dc55-db-table-wpgas_cf7dbplugin_submits.table.gz (14/24): adding to final database dump
0051.436 (0) backup_2016-06-27-1437_Auto_amp_Gas_Autogas_Umrst_52f1d4c6dc55-db-table-wpgas_cp_calculated_fields_form_discount_codes.table.gz (15/24): adding to final database dump
0051.437 (0) backup_2016-06-27-1437_Auto_amp_Gas_Autogas_Umrst_52f1d4c6dc55-db-table-wpgas_cp_calculated_fields_form_posts.table.gz (16/24): adding to final database dump
0051.438 (0) backup_2016-06-27-1437_Auto_amp_Gas_Autogas_Umrst_52f1d4c6dc55-db-table-wpgas_cp_calculated_fields_form_settings.table.gz (17/24): adding to final database dump
0051.440 (0) backup_2016-06-27-1437_Auto_amp_Gas_Autogas_Umrst_52f1d4c6dc55-db-table-wpgas_revslider_css.table.gz (18/24): adding to final database dump
0051.443 (0) backup_2016-06-27-1437_Auto_amp_Gas_Autogas_Umrst_52f1d4c6dc55-db-table-wpgas_revslider_layer_animations.table.gz (19/24): adding to final database dump
0051.444 (0) backup_2016-06-27-1437_Auto_amp_Gas_Autogas_Umrst_52f1d4c6dc55-db-table-wpgas_revslider_navigations.table.gz (20/24): adding to final database dump
0051.445 (0) backup_2016-06-27-1437_Auto_amp_Gas_Autogas_Umrst_52f1d4c6dc55-db-table-wpgas_revslider_settings.table.gz (21/24): adding to final database dump
0051.446 (0) backup_2016-06-27-1437_Auto_amp_Gas_Autogas_Umrst_52f1d4c6dc55-db-table-wpgas_revslider_sliders.table.gz (22/24): adding to final database dump
0051.448 (0) backup_2016-06-27-1437_Auto_amp_Gas_Autogas_Umrst_52f1d4c6dc55-db-table-wpgas_revslider_slides.table.gz (23/24): adding to final database dump
0051.454 (0) backup_2016-06-27-1437_Auto_amp_Gas_Autogas_Umrst_52f1d4c6dc55-db-table-wpgas_revslider_static_slides.table.gz (24/24): adding to final database dump
0051.455 (0) backup_2016-06-27-1437_Auto_amp_Gas_Autogas_Umrst_52f1d4c6dc55-db.gz: finished writing out complete database file (2864 KB)
0051.484 (0) Total database tables backed up: 24 (backup_2016-06-27-1437_Auto_amp_Gas_Autogas_Umrst_52f1d4c6dc55-db.gz, size: 2955945, checksum (SHA1): 4a5b5caf4feeb1e27ec11d9d630abaea39aecb6b)
0051.493 (0) backup_2016-06-27-1437_Auto_amp_Gas_Autogas_Umrst_52f1d4c6dc55-plugins.zip: plugins: This file has not yet been successfully uploaded: will queue
0051.494 (0) backup_2016-06-27-1437_Auto_amp_Gas_Autogas_Umrst_52f1d4c6dc55-themes.zip: themes: This file has not yet been successfully uploaded: will queue
0051.494 (0) backup_2016-06-27-1437_Auto_amp_Gas_Autogas_Umrst_52f1d4c6dc55-db.gz: db: This file has not yet been successfully uploaded: will queue
0051.495 (0) Saving backup history. Total backup size: 32 MB
0051.497 (0) Requesting upload of the files that have not yet been successfully uploaded (3)
0051.499 (0) Cloud backup selection (1/1): none (last)
0051.500 (0) No remote despatch: user chose no remote backup service
0051.501 (0) Recording as successfully uploaded: backup_2016-06-27-1437_Auto_amp_Gas_Autogas_Umrst_52f1d4c6dc55-plugins.zip (35e0f92a7e06fac1b3c047c32f225181)
0051.505 (0) Recording as successfully uploaded: backup_2016-06-27-1437_Auto_amp_Gas_Autogas_Umrst_52f1d4c6dc55-themes.zip (c092835ebea2b31b2f28a4078abce72f)
0051.508 (0) Recording as successfully uploaded: backup_2016-06-27-1437_Auto_amp_Gas_Autogas_Umrst_52f1d4c6dc55-db.gz (1521fd0e48211015806b213a68f02f58)
0051.525 (0) Retain: beginning examination of existing backup sets; user setting: retain_files=2, retain_db=2
0051.526 (0) Number of backup sets in history: 5; groups (db): 1
0051.526 (0) Examining (for databases) backup set with group_id=0, nonce=52f1d4c6dc55, datestamp=1467034643 (Jun 27 2016 13:37:23)
0051.527 (0) This backup set is the backup set just made, so will not be deleted.
0051.527 (0) Examining (for databases) backup set with group_id=0, nonce=3287fa284edf, datestamp=1466599767 (Jun 22 2016 12:49:27)
0051.528 (0) This backup set remains non-empty (f=0/d=1); will retain in history
0051.528 (0) Examining (for databases) backup set with group_id=0, nonce=f89cb42181c4, datestamp=1465986698 (Jun 15 2016 10:31:38)
0051.529 (0) 1465986698: db: this set includes a database (backup_2016-06-15-1131_Auto_amp_Gas_Autogas_Umrst_f89cb42181c4-db.gz); db count is now 2
0051.530 (0) 1465986698: db: over retain limit (2); will delete this database
0051.530 (0) Delete file: backup_2016-06-15-1131_Auto_amp_Gas_Autogas_Umrst_f89cb42181c4-db.gz, service=none
0051.531 (0) Deleting local copy (backup_2016-06-15-1131_Auto_amp_Gas_Autogas_Umrst_f89cb42181c4-db.gz)
0051.537 (0) This backup set remains non-empty (f=1/d=0); will retain in history
0051.538 (0) Examining (for databases) backup set with group_id=0, nonce=cd2354ffcf35, datestamp=1462180711 (May 02 2016 09:18:31)
0051.539 (0) Examining (for databases) backup set with group_id=0, nonce=e4be3f0d304d, datestamp=1461009147 (Apr 18 2016 19:52:27)
0051.539 (0) Number of backup sets in history: 5; groups (files): 1
0051.540 (0) Examining (for files) backup set with nonce=52f1d4c6dc55, datestamp=1467034643 (Jun 27 2016 13:37:23)
0051.541 (0) This backup set is the backup set just made, so will not be deleted.
0051.541 (0) This backup set is the backup set just made, so will not be deleted.
0051.541 (0) This backup set remains non-empty (f=1/d=1); will retain in history
0051.542 (0) Examining (for files) backup set with nonce=3287fa284edf, datestamp=1466599767 (Jun 22 2016 12:49:27)
0051.542 (0) This backup set remains non-empty (f=0/d=1); will retain in history
0051.543 (0) Examining (for files) backup set with nonce=f89cb42181c4, datestamp=1465986698 (Jun 15 2016 10:31:38)
0051.544 (0) This backup set remains non-empty (f=1/d=0); will retain in history
0051.544 (0) Examining (for files) backup set with nonce=cd2354ffcf35, datestamp=1462180711 (May 02 2016 09:18:31)
0051.545 (0) plugins: over retain limit (2); will delete this file entity
0051.545 (0) themes: over retain limit (2); will delete this file entity
0051.546 (0) Delete file: backup_2016-05-02-0818_Auto_amp_Gas_Autogas_Umrst_cd2354ffcf35-plugins.zip, service=none
0051.546 (0) Deleting local copy (backup_2016-05-02-0818_Auto_amp_Gas_Autogas_Umrst_cd2354ffcf35-plugins.zip)
0051.547 (0) Delete file: backup_2016-05-02-0818_Auto_amp_Gas_Autogas_Umrst_cd2354ffcf35-themes.zip, service=none
0051.548 (0) Deleting local copy (backup_2016-05-02-0818_Auto_amp_Gas_Autogas_Umrst_cd2354ffcf35-themes.zip)
0051.556 (0) This backup set remains non-empty (f=1/d=0); will retain in history
0051.557 (0) Examining (for files) backup set with nonce=e4be3f0d304d, datestamp=1461009147 (Apr 18 2016 19:52:27)
0051.558 (0) This backup set remains non-empty (f=1/d=0); will retain in history
0051.558 (0) Retain: saving new backup history (sets now: 5) and finishing retain operation
0051.561 (0) Resume backup (52f1d4c6dc55, 0): finish run
0051.562 (0) Decremented the semaphore (fd) by 1
0051.568 (0) Semaphore (fd) unlocked
0051.569 (0) There were no errors in the uploads, so the 'resume' event (1) is being unscheduled
0051.572 (0) The backup apparently succeeded and is now complete
0051.573 (0) No email will/can be sent - the user has not configured an email address.
0051.574 (0) Die Sicherung war anscheinend erfolgreich und ist nun vollständig
